Efficient list melting and unnesting with rrapply • rrapply
…
library(tidyr)
library(tibble)

pokedex_wide_tidyr <- as_tibble(pokedex) %>%
  unnest_wider(pokemon) %>%
  unnest_wider(next_evolution, names_sep = ".") %>%
  unnest_wider(prev_evolution, names_sep = ".") %>%
  unnest_wider(next_evolution.1, names_sep = ".") %>%
  unnest_wider(next_evolution.2, names_sep = ".") %>%
  unnest_wider(next_evolution.3, names_sep = ".") %>%
  unnest_wider(prev_evolution.1, names_sep = ".") %>%
  unnest_wider(prev_evolution.2, names_sep = ".")

pokedex_wide_tidyr
#> # A tibble: 151 x 25
#>       id num   name  img   type  height weight candy candy_count egg  
#>    <int> <chr> <chr> <chr> <lis> <chr>  <chr>  <chr>       <int> <chr>
#>  1     1 001   Bulb… http… <chr… 0.71 m 6.9 kg Bulb…          25 2 km 
#>  2     2 002   Ivys… http… <chr… 0.99 m 13.0 … Bulb…         100 Not …
#>  3     3 003   Venu… http… <chr… 2.01 m 100.0… Bulb…          NA Not …
#>  4     4 004   Char… http… <chr… 0.61 m 8.5 kg Char…          25 2 km 
#>  5     5 005   Char… http… <chr… 1.09 m 19.0 … Char…         100 Not …
#>  6     6 006   Char… http… <chr… 1.70 m 90.5 … Char…          NA Not …
#>  7     7 007   Squi… http… <chr… 0.51 m 9.0 kg Squi…          25 2 km 
#>  8     8 008   Wart… http… <chr… 0.99 m 22.5 … Squi…         100 Not …
#>  9     9 009   Blas… http… <chr… 1.60 m 85.5 … Squi…          NA Not …
#> 10    10 010   Cate… http… <chr… 0.30 m 2.9 kg Cate…          12 2 km 
#> # … with 141 more rows, and 15 more variables: spawn_chance <dbl>,
#> #   avg_spawns <dbl>, spawn_time <chr>, multipliers <list>, weaknesses <list>,
#> #   next_evolution.1.num <chr>, next_evolution.1.name <chr>,
#> #   next_evolution.2.num <chr>, next_evolution.2.name <chr>,
#> #   next_evolution.3.num <chr>, next_evolution.3.name <chr>,
#> #   prev_evolution.1.num <chr>, prev_evolution.1.name <chr>,
#> #   prev_evolution.2.num <chr>, prev_evolution.2.name <chr>
…
