Efficient list melting and unnesting with rrapply • rrapply
…
## unnested version
rrapply(gh_repos, how = "bind") |>
  as_tibble()
#> # A tibble: 176 × 84
#>          id name    full_name owner.login owner.id owner.avatar_url owner.gravatar_id owner.url owner.html_url owner.followers_url owner.following_url
#>       <int> <chr>   <chr>     <chr>          <int> <chr>            <chr>             <chr>     <chr>          <chr>               <chr>              
#>  1 61160198 after   gaborcsa… gaborcsardi   660288 https://avatars… ""                https://… https://githu… https://api.github… https://api.github…
#>  2 40500181 argufy  gaborcsa… gaborcsardi   660288 https://avatars… ""                https://… https://githu… https://api.github… https://api.github…
#>  3 36442442 ask     gaborcsa… gaborcsardi   660288 https://avatars… ""                https://… https://githu… https://api.github… https://api.github…
#>  4 34924886 baseim… gaborcsa… gaborcsardi   660288 https://avatars… ""                https://… https://githu… https://api.github… https://api.github…
#>  5 61620661 citest  gaborcsa… gaborcsardi   660288 https://avatars… ""                https://… https://githu… https://api.github… https://api.github…
#>  6 33907457 clisym… gaborcsa… gaborcsardi   660288 https://avatars… ""                https://… https://githu… https://api.github… https://api.github…
#>  7 37236467 cmaker  gaborcsa… gaborcsardi   660288 https://avatars… ""                https://… https://githu… https://api.github… https://api.github…
#>  8 67959624 cmark   gaborcsa… gaborcsardi   660288 https://avatars… ""                https://… https://githu… https://api.github… https://api.github…
#>  9 63152619 condit… gaborcsa… gaborcsardi   660288 https://avatars… ""                https://… https://githu… https://api.github… https://api.github…
#> 10 24343686 crayon  gaborcsa… gaborcsardi   660288 https://avatars… ""                https://… https://githu… https://api.github… https://api.github…
#> # ℹ 166 more rows
#> # ℹ 73 more variables: owner.gists_url <chr>, owner.starred_url <chr>, owner.subscriptions_url <chr>, owner.organizations_url <chr>,
#> #   owner.repos_url <chr>, owner.events_url <chr>, owner.received_events_url <chr>, owner.type <chr>, owner.site_admin <lgl>, private <lgl>,
#> #   html_url <chr>, description <list>, fork <lgl>, url <chr>, forks_url <chr>, keys_url <chr>, collaborators_url <chr>, teams_url <chr>,
#> #   hooks_url <chr>, issue_events_url <chr>, events_url <chr>, assignees_url <chr>, branches_url <chr>, tags_url <chr>, blobs_url <chr>,
#> #   git_tags_url <chr>, git_refs_url <chr>, trees_url <chr>, statuses_url <chr>, languages_url <chr>, stargazers_url <chr>, contributors_url <chr>,
#> #   subscribers_url <chr>, subscription_url <chr>, commits_url <chr>, git_commits_url <chr>, comments_url <chr>, issue_comment_url <chr>, …
…
## unnested version
rrapply(got_chars, how = "bind") |>
  as_tibble()
#> # A tibble: 30 × 18
#>    url                      id name  gender culture born  died  alive titles aliases father mother spouse allegiances books povBooks tvSeries playedBy
#>    <chr>                 <int> <chr> <chr>  <chr>   <chr> <chr> <lgl> <list> <list>  <chr>  <chr>  <chr>  <list>      <lis> <list>   <list>   <list>  
#>  1 https://www.anapiofi…  1022 Theo… Male   "Ironb… "In … ""    TRUE  <chr>  <chr>   ""     ""     ""     <chr [1]>   <chr> <chr>    <chr>    <chr>   
#>  2 https://www.anapiofi…  1052 Tyri… Male   ""      "In … ""    TRUE  <chr>  <chr>   ""     ""     "http… <chr [1]>   <chr> <chr>    <chr>    <chr>   
#>  3 https://www.anapiofi…  1074 Vict… Male   "Ironb… "In … ""    TRUE  <chr>  <chr>   ""     ""     ""     <chr [1]>   <chr> <chr>    <chr>    <chr>   
#>  4 https://www.anapiofi…  1109 Will  Male   ""      ""    "In … FALSE <chr>  <chr>   ""     ""     ""     <lgl [1]>   <chr> <chr>    <chr>    <chr>   
#>  5 https://www.anapiofi…  1166 Areo… Male   "Norvo… "In … ""    TRUE  <chr>  <chr>   ""     ""     ""     <chr [1]>   <chr> <chr>    <chr>    <chr>   
#>  6 https://www.anapiofi…  1267 Chett Male   ""      "At … "In … FALSE <chr>  <chr>   ""     ""     ""     <lgl [1]>   <chr> <chr>    <chr>    <chr>   
#>  7 https://www.anapiofi…  1295 Cres… Male   ""      "In … "In … FALSE <chr>  <chr>   ""     ""     ""     <lgl [1]>   <chr> <chr>    <chr>    <chr>   
#>  8 https://www.anapiofi…   130 Aria… Female "Dorni… "In … ""    TRUE  <chr>  <chr>   ""     ""     ""     <chr [1]>   <chr> <chr>    <chr>    <chr>   
#>  9 https://www.anapiofi…  1303 Daen… Female "Valyr… "In … ""    TRUE  <chr>  <chr>   ""     ""     "http… <chr [1]>   <chr> <chr>    <chr>    <chr>   
#> 10 https://www.anapiofi…  1319 Davo… Male   "Weste… "In … ""    TRUE  <chr>  <chr>   ""     ""     "http… <chr [2]>   <chr> <chr>    <chr>    <chr>   
#> # ℹ 20 more rows
…
## unnested version (excluding deeply nested sublists)
discs <- rrapply(
  discog,
  condition = \(x, .xpos) length(.xpos) < 5,
  f = \(x) ifelse(is.null(x), NA, x),  ## replace NULLs
  how = "bind"
)
as_tibble(discs)
#> # A tibble: 155 × 12
#>    instance_id date_added             basic_information.year basic_information.ma…¹ basic_information.id basic_information.th…² basic_information.ti…³
#>          <int> <chr>                                   <int> <chr>                                 <int> <chr>                  <chr>                 
#>  1   354823933 2019-02-16T17:48:59-0…                   2015 NA                                  7496378 "https://img.discogs.… Demo                  
#>  2   354092601 2019-02-13T14:13:11-0…                   2013 https://api.discogs.c…              4490852 "https://img.discogs.… Observant Com El Mon …
#>  3   354091476 2019-02-13T14:07:23-0…                   2017 https://api.discogs.c…              9827276 "https://img.discogs.… I                     
#>  4   351244906 2019-02-02T11:39:58-0…                   2017 https://api.discogs.c…              9769203 "https://img.discogs.… Oído Absoluto         
#>  5   351244801 2019-02-02T11:39:37-0…                   2015 https://api.discogs.c…              7237138 "https://img.discogs.… A Cat's Cause, No Dog…
#>  6   351052065 2019-02-01T20:40:53-0…                   2019 https://api.discogs.c…             13117042 "https://img.discogs.… Tashme                
#>  7   350315345 2019-01-29T15:48:37-0…                   2014 https://api.discogs.c…              7113575 "https://img.discogs.… Demo                  
#>  8   350315103 2019-01-29T15:47:22-0…                   2015 https://api.discogs.c…             10540713 "https://img.discogs.… Let The Miracles Begin
#>  9   350314507 2019-01-29T15:44:08-0…                   2017 https://api.discogs.c…             11260950 ""                     Sub Space             
#> 10   350314047 2019-01-29T15:41:35-0…                   2017 NA                                 11726853 "https://img.discogs.… Demo                  
#> # ℹ 145 more rows
#> # ℹ abbreviated names: ¹​basic_information.master_url, ²​basic_information.thumb, ³​basic_information.title
#> # ℹ 5 more variables: basic_information.cover_image <chr>, basic_information.resource_url <chr>, basic_information.master_id <int>, id <int>,
#> #   rating <int>

## unnest labels sublists 
labels <- rrapply(
  discog,
  condition = \(x, .xparents) "labels" %in% .xparents,
  how = "bind",
  options = list(coldepth = 5, namecols = TRUE)
)
as_tibble(labels)
#> # A tibble: 182 × 10
#>    L1    L2                L3     L4    name                                      entity_type catno   resource_url                 id entity_type_name
#>    <chr> <chr>             <chr>  <chr> <chr>                                     <chr>       <chr>   <chr>                     <int> <chr>           
#>  1 1     basic_information labels 1     Tobi Records (2)                          1           TOB-013 https://api.discogs.com… 633407 Label           
#>  2 2     basic_information labels 1     La Vida Es Un Mus                         1           Mus70   https://api.discogs.com…  38322 Label           
#>  3 3     basic_information labels 1     La Vida Es Un Mus                         1           MUS118  https://api.discogs.com…  38322 Label           
#>  4 4     basic_information labels 1     La Vida Es Un Mus                         1           MUS132  https://api.discogs.com…  38322 Label           
#>  5 4     basic_information labels 2     Beat Generation                           1           BEAT64  https://api.discogs.com…  88198 Label           
#>  6 4     basic_information labels 3     Beat Generation                           1           BEAT 64 https://api.discogs.com…  88198 Label           
#>  7 5     basic_information labels 1     Katorga Works                             1           KW-043  https://api.discogs.com… 205895 Label           
#>  8 6     basic_information labels 1     High Fashion Industries                   1           HFI017  https://api.discogs.com… 637837 Label           
#>  9 7     basic_information labels 1     Mind Control Records (6)                  1           none    https://api.discogs.com… 763103 Label           
#> 10 8     basic_information labels 1     Not On Label (Phantom Head Self-released) 1           none    https://api.discogs.com… 879916 Label           
#> # ℹ 172 more rows

## merge disc id's with labels
merge(
  x = data.frame(L1 = rownames(discs), disc_id = discs[, "id"]),
  y = labels, 
  by = "L1", 
  sort = FALSE
) |>
  as_tibble()
#> # A tibble: 182 × 11
#>    L1     disc_id L2                L3     L4    name                                      entity_type catno   resource_url        id entity_type_name
#>    <chr>    <int> <chr>             <chr>  <chr> <chr>                                     <chr>       <chr>   <chr>            <int> <chr>           
#>  1 1      7496378 basic_information labels 1     Tobi Records (2)                          1           TOB-013 https://api.di… 633407 Label           
#>  2 2      4490852 basic_information labels 1     La Vida Es Un Mus                         1           Mus70   https://api.di…  38322 Label           
#>  3 3      9827276 basic_information labels 1     La Vida Es Un Mus                         1           MUS118  https://api.di…  38322 Label           
#>  4 4      9769203 basic_information labels 1     La Vida Es Un Mus                         1           MUS132  https://api.di…  38322 Label           
#>  5 4      9769203 basic_information labels 2     Beat Generation                           1           BEAT64  https://api.di…  88198 Label           
#>  6 4      9769203 basic_information labels 3     Beat Generation                           1           BEAT 64 https://api.di…  88198 Label           
#>  7 5      7237138 basic_information labels 1     Katorga Works                             1           KW-043  https://api.di… 205895 Label           
#>  8 6     13117042 basic_information labels 1     High Fashion Industries                   1           HFI017  https://api.di… 637837 Label           
#>  9 7      7113575 basic_information labels 1     Mind Control Records (6)                  1           none    https://api.di… 763103 Label           
#> 10 8     10540713 basic_information labels 1     Not On Label (Phantom Head Self-released) 1           none    https://api.di… 879916 Label           
#> # ℹ 172 more rows
…
